[
  {"id":590,
    "uaqs_summary_short" : "More paintings with musical connections",
    "uaqs_photo" : "The_Hay_Wain_by_Hieronymus_Bosch.jpg",
    "uaqs_summary" : "Musicians appear in prominent positions in other works by the same artist, notably in the middle of the central panel of the <a href=\"https://en.wikipedia.org/wiki/The_Haywain_Triptych\">Hay Wain Triptych</a>. The well-known Estonian vocal group Heinavanker (which has visited Tucson on two occasions) takes its name from this painting.",
    "uaqs_links": [
      {
      "url" : "https://en.wikipedia.org/wiki/Museo_del_Prado",
      "title": "Museo del Prado",
      "attributes": {
          "class": "btn btn-blue default btn-block btn-sm"
          }
      }
    ],
    "uaqs_setting_bg_attach": "bg-attachment-scroll",
    "uaqs_setting_bg_size": "bg-size-w-100",
    "bottom_spacing" : "mb-0",
    "view_mode" : "uaqs_bg_img_content_center"
  },
  {"id":591,
    "uaqs_summary_short" : "Join the Best Students in the Country",
    "uaqs_photo" : "uaqs_content_chunks_marquee_fw-demo-ua-0206-x3_1.jpg",
    "uaqs_summary" : "<p>Beyond employment, are you looking to design your ideal career and life?</p>\r",
    "uaqs_links": [
      {
      "url" : "http://www.arizona.edu/how-apply-ua",
      "title": "Apply",
      "attributes": {
          "class": "btn btn-red pull-left"
          }
      },
      {
      "url" : "https://admissions.arizona.edu/visit",
      "title": "Visit",
      "attributes": {
          "class": "btn btn-blue pull-left ml-2"
          }
      }
    ],
    "uaqs_setting_bg_attach": "bg-attachment-fixed",
    "uaqs_setting_bg_size": "bg-size-cover",
    "uaqs_setting_text_bg_color": "bg-trans-white",
    "bottom_spacing" : "mb-0",
    "view_mode" : "uaqs_bg_img_content_right"
  },
  {"id":592,
    "uaqs_summary_short" : "",
    "uaqs_photo" : "mecklerphoto_mens_wearhouse_0150_f_0.jpg",
    "uaqs_summary" : "<p>More Than 100 Majors</p><p>Beyond employment, are you looking to design your ideal career and life? With more than 100 majors, we have the academics and faculty to help you connect what you are learning with your&nbsp;aspirations to make the world better. Coupled with outstanding tutoring, support, and engagement inside and outside the classroom, you will succeed no matter what your career plans are.</p>\r",
    "uaqs_links": [
      {
      "url" : "http://www.arizona.edu/majors",
      "title": "View majors",
      "attributes": {
          "class": "btn btn-default psuedo-link"
          }
      }
    ],
    "uaqs_setting_bg_attach": "bg-attachment-scroll",
    "uaqs_setting_bg_size": "bg-size-w-100",
    "uaqs_setting_text_bg_color": "bg-trans-white",
    "bottom_spacing" : "mb-0",
    "view_mode" : "uaqs_bg_img_content_center"
  },
  {"id":593,
    "uaqs_summary_short" : "We have so many june bugs.",
    "uaqs_photo" : "uaqs_content_chunks_marquee_june_bugs.jpg",
    "uaqs_summary" : "",
    "uaqs_links": [
      {
      "url" : "https://insects.arizona.edu/",
      "title": "Bug out!",
      "attributes": {
          "class": "btn btn-default"
          }
      }
    ],
    "uaqs_setting_bg_attach": "bg-attachment-fixed",
    "uaqs_setting_bg_size": "bg-size-cover",
    "uaqs_setting_text_bg_color": "bg-trans-black",
    "bottom_spacing" : "mb-0",
    "view_mode" : "uaqs_bg_img_content_left"
  },
  {"id":594,
    "uaqs_summary_short" : "UA QuickStart",
    "uaqs_photo" : "demo-carousel-item-4.jpg",
    "uaqs_summary" : "<p class=\"text-size-h3\">Welcome to the University of Arizona's preconfigured version of Drupal</p>",
    "uaqs_links": [
      {
      "url" : "https://quickstart.arizona.edu/",
      "title": "Docs & More",
      "attributes": {
          "class": "btn btn-default"
          }
      }
    ],
    "uaqs_setting_bg_attach": "bg-attachment-fixed",
    "uaqs_setting_bg_size": "bg-size-cover",
    "uaqs_setting_text_bg_color": "bg-trans-white",
    "bottom_spacing" : "mb-0",
    "view_mode" : "uaqs_bg_img_content_right"
  }
]